module peterlxb/go-puzzle

go 1.16

require (
	github.com/gin-gonic/gin v1.6.3
	github.com/go-playground/validator/v10 v10.3.0 // indirect
	github.com/golang/protobuf v1.4.2 // indirect
	github.com/jstemmer/go-junit-report v0.9.1 // indirect
	github.com/modern-go/concurrent v0.0.0-20180306012644-bacd9c7ef1dd // indirect
	github.com/modern-go/reflect2 v1.0.1 // indirect
	github.com/stretchr/testify v1.4.0
	golang.org/x/sys v0.0.0-20200602225109-6fdc65e7d980 // indirect
	google.golang.org/protobuf v1.24.0 // indirect
	gopkg.in/yaml.v2 v2.3.0 // indirect
)

